module read-skew-postgresql

go 1.20

require (
	github.com/georgysavva/scany/v2 v2.0.0
	github.com/jackc/pgx/v5 v5.4.2
)

require (
	github.com/jackc/pgpassfile v1.0.0 // indirect
	github.com/jackc/pgservicefile v0.0.0-20221227161230-091c0ba34f0a // indirect
	github.com/jackc/puddle/v2 v2.2.0 // indirect
	golang.org/x/crypto v0.9.0 // indirect
	golang.org/x/sync v0.1.0 // indirect
	golang.org/x/text v0.9.0 // indirect
)
